[
  {
    "id" : 1,
    "name" : "Chinese LN (Wuxia)",
    "wikipediaLink" : "https://en.wikipedia.org/wiki/Wuxia",
    "details" : "Even though light novels originate from Japan, I found the wuxia style extremely satisfying, as it represents humanity transcending its mortal boundaries.",
    "likeIt" : true
  },
  {
    "id" : 2,
    "name" : "Video games",
    "wikipediaLink" : "https://en.wikipedia.org/wiki/Video_game",
    "details" : "In a society where the world may seem grim to look at for some people, video games present an opportunity of escape in a world more fair to everyone.",
    "likeIt" : true
  },
  {
    "id" : 3,
    "name" : "RENU",
    "wikipediaLink" : "https://fr.wikipedia.org/wiki/R%C3%A9volution_num%C3%A9rique",
    "details" : "This class given by Mr Patrelle was not interesting, as most of its content was already common knowledge for us.",
    "likeIt" : false
  },
  {
    "id" : 4,
    "name" : "Donald Duck",
    "wikipediaLink" : "https://en.wikipedia.org/wiki/Donald_Duck",
    "details" : "It's a duck in a children cartoon, he's a nice guy... duck I mean!",
    "likeIt" : true
  },
  {
    "id" : 5,
    "name" : "French fries",
    "wikipediaLink" : "https://en.wikipedia.org/wiki/French_fries",
    "details" : "It's good. Especially in belgium.",
    "likeIt" : true
  },
  {
    "id" : 6,
    "name" : "Anime",
    "wikipediaLink" : "https://en.wikipedia.org/wiki/Anime",
    "details" : "I love both manga and anime, I find it super-nice to watch, more than a movie or a TV-series.",
    "likeIt" : true
  },
  {
    "id" : 7,
    "name" : "Alcohol",
    "wikipediaLink" : "https://en.wikipedia.org/wiki/Alcohol",
    "details" : "I actually prefer water and fruit juices over alcohol. Just a matter of taste I guess.",
    "likeIt" : false
  },
  {
    "id" : 8,
    "name" : "EPITA",
    "wikipediaLink" : "https://en.wikipedia.org/wiki/%C3%89cole_pour_l%27informatique_et_les_techniques_avanc%C3%A9es",
    "details" : "It's  guess I have to put it to gain some of the points I won't have anywhere anyway :'(",
    "likeIt" : true
  },
  {
    "id" : 9,
    "name" : "Memes",
    "wikipediaLink" : "https://en.wikipedia.org/wiki/Internet_meme",
    "details" : "I don't always create memes, but when I do, I prefer Dos Ekkis",
    "likeIt" : true
  }
]